-9698.90;4993.62;64.76;
-10919.80;4920.00;-31.95;
-11067.25;4453.20;-31.95;
-11125.71;3026.84;-30.19;
-11074.63;2481.66;-21.85;
-11054.05;1563.05;-11.30;
-11028.16;406.67;-31.95;
-10989.40;-1325.09;-1.97;
-10990.66;-2416.86;-31.95;
-11010.79;-3166.21;-31.95;
-11042.78;-3710.37;-31.95;
-11046.17;-4321.08;-31.95;
-11059.16;-5021.79;-31.95;
-10970.08;-5576.83;-31.95;
-11191.66;-6424.00;-31.95;
-10482.29;-6986.31;-31.95;
-10879.79;-7998.75;-31.95;
-10885.25;-9030.51;-31.95;
-10736.55;-9713.78;-31.95;
-9773.07;-10120.94;-31.95;
-8528.96;-10135.26;-31.95;
-7903.10;-10142.30;-31.95;
-6900.27;-10140.62;-31.95;
-5947.68;-10133.70;-31.95;
-5069.45;-9830.29;-31.95;
-4129.66;-10191.98;-31.95;
-2821.53;-9879.91;-26.61;
-1859.31;-10114.29;-31.95;
-380.02;-9672.50;-27.95;
681.84;-10123.80;-31.56;
1343.82;-9566.37;24.70;
2735.73;-10011.29;-31.95;
3663.19;-9761.70;8.19;
4141.41;-10126.62;-31.95;
5103.95;-10191.99;-31.95;
4682.33;-8875.23;-26.63;
5030.43;-7407.37;76.22;
4749.43;-5879.52;68.02;
5010.72;-4433.12;44.75;
4705.66;-3397.43;-7.69;
5038.06;-2655.91;-27.96;
4715.08;-1499.81;-21.20;
4908.08;-305.98;-19.18;
4868.20;1218.78;-23.89;
4966.68;3350.96;80.63;
4931.60;4995.91;69.02;
5103.99;6127.99;69.02;
3856.80;5911.75;69.02;
2742.08;6078.68;69.02;
1836.56;5852.87;69.02;
163.47;6004.95;69.02;
-1459.08;5835.33;69.02;
-2345.33;6012.93;69.02;
-4106.89;5734.64;69.02;
-5977.47;5799.47;29.65;
-7748.04;5936.54;-31.95;
-9333.67;5968.31;42.77;
-11247.95;6127.95;-31.95;
-9430.54;4995.39;85.26;
-7332.22;4086.58;55.93;
-8248.50;3469.23;67.94;
-8933.88;1953.50;137.89;
-9262.38;312.20;124.29;
-9369.90;-1204.08;88.02;
-8907.95;-1380.03;90.81;
-8428.00;-1380.03;105.65;
-4639.08;-4794.66;5.84;
-4351.12;-5082.66;4.51;
-5785.35;-7360.31;72.86;
-7035.66;-7189.79;-205.85;
-7493.35;-6715.25;-234.47;
-8049.24;-6844.54;-234.00;
-8402.84;-6265.22;-96.27;
-8589.88;-6808.29;-133.69;
-3870.41;-211.62;192.03;
-3830.12;-170.12;192.03;
-3913.27;-187.43;192.03;
-3817.19;-261.47;192.03;
-3892.59;-266.85;192.03;
-4460.85;1614.40;-33.83;
-5644.58;1600.00;53.00;
-6707.85;2466.07;-20.60;
-5166.71;2406.10;68.44;
-5083.80;4498.53;81.44;
-5052.34;4535.38;69.03;
-5022.70;4442.98;69.03;
-5130.83;4486.65;69.03;
-8357.30;-2392.19;412.38;
-8379.19;-2304.67;413.76;
-8295.29;-2329.10;565.22;
-3974.29;-2075.25;747.94;
-4040.46;-2207.76;736.18;
-2377.18;-2000.22;693.09;
-1675.32;-2804.50;540.69;
-2589.30;-3780.42;381.26;
-4632.14;-3542.97;203.39;
-4770.14;-3527.15;173.61;
-4646.62;-4692.48;13.23;
-6859.05;-4716.58;-27.64;
-6833.06;-4810.86;-31.80;
-3120.04;-7367.14;70.98;
-2946.12;-5662.58;18.22;
-3081.65;-5699.09;10.18;
-3423.63;-4754.32;103.90;
-154.35;-5314.72;25.63;
321.84;-3968.71;26.41;
177.46;-2681.57;-16.96;
425.53;-1177.36;-32.07;
691.08;-1201.49;44.92;
-1667.31;-1266.42;99.38;
-1813.98;1302.63;19.22;
-3169.59;3414.34;74.39;
-1415.94;4259.93;76.03;
-1525.36;4401.43;82.86;
-1010.29;4551.52;73.21;
-971.56;4224.93;73.65;
-731.26;4191.59;72.67;
-677.29;4381.55;74.48;
-137.23;4269.78;114.02;
-133.75;4235.57;114.02;
-111.32;4209.09;114.02;
2899.95;3752.25;78.05;
2889.97;3739.09;78.28;
2870.81;3713.86;78.39;
2873.67;3758.76;77.22;
2904.43;3735.41;78.70;
2878.37;3722.83;78.47;
2890.04;3755.42;77.70;
301.51;2390.52;49.28;
2678.70;3022.93;610.59;
3815.12;985.98;51.10;
158.93;520.67;0.03;
291.91;683.13;16.77;
495.99;574.36;10.70;
300.60;573.54;200.03;
1105.53;574.59;12.03;
1733.71;106.38;254.67;
2209.28;-48.25;267.88;
2782.09;511.47;267.82;
2560.39;474.45;271.30;
2574.48;420.59;268.21;
2316.65;-500.93;238.36;
1699.83;-671.61;135.06;
1840.81;37.91;384.03;
1729.25;-14.95;384.03;
1171.75;485.49;156.03;
1113.80;539.56;156.03;
2620.74;499.33;394.21;
2662.93;503.69;394.21;
2668.89;459.23;394.21;
3307.54;-3843.55;-483.29;
3299.12;-3961.88;-485.07;
-4485.13;-7482.38;77.47;
1159.54;-6796.48;197.73;
